{"intents": [
    {"tag": "greeting",
     "patterns": ["Hi there", "How are you", "Is anyone there?","Hey","Hola", "Hello", "Good day"],
     "responses": ["Hello, thanks for asking", "Good to see you again", "Hi there, how can I help?"],
     "context": [""]
    },
    {"tag": "goodbye",
     "patterns": ["Bye", "See you later", "Goodbye", "Nice chatting to you, bye", "Till next time"],
     "responses": ["See you!", "Have a nice day", "Bye! Come back again soon."],
     "context": [""]
    },
    {"tag": "thanks",
     "patterns": ["Thanks", "Thank you", "That's helpful", "Awesome, thanks", "Thanks for helping me"],
     "responses": ["Happy to help!", "Any time!", "My pleasure"],
     "context": [""]
    },
    {"tag": "noanswer",
     "patterns": [],
     "responses": ["Sorry, can't understand you mate", "Please give me more info", "Not sure I understand"],
     "context": [""]
    },
    {"tag": "options",
     "patterns": ["How you could help me?", "What you can do?", "What help you provide?", "How you can be helpful?", "What support is offered"],
     "responses": ["I can help you find interesting things to do around Melbourne", "Offering support for tourist to find fun activities to do in Melbourne"],
     "context": [""]
    },
    {"tag": "Dining",
     "patterns": ["How to find restaurants", "I am Hungry", "Restaurants", "I want food", "I want to get some burghers"],
     "responses": ["There are multiple restaurants around University of Melbourne. Check them out!!!!!", "Down for Maccas? There's one on Flinders Street."],
     "context": [""]
    },
    {"tag": "Sightseeing",
     "patterns": ["I wanna go sightseeing", "sightseeing", "Walk around Melbourne", "Look at the gardens"],
     "responses": ["Stroll through the lovely botanic garden or the magnificient skyscrapers in the CBD"],
     "context": [""]
    },
    {"tag": "Shopping",
     "patterns": ["Find some shops.", "I want to go shopping", "Buy clothes", "Get some shorts and shirts" ],
     "responses": ["Check out the branded stores in the Melbourne Central Mall or the famous Chapel Street","Go to the South Wharf DFO for some discounted branded garments"],
     "context": []
    },
    {"tag": "Metro",
     "patterns": ["I want to leave", "How can i get back home?", "Where can I get a train?"],
     "responses": ["Catch a train in the iconic Flinders Street Station. Dont forget to use the free trams!!!"],
     "context": [""]
    },
    {"tag": "Drink",
     "patterns": ["I am really thirsty", "Where can I get some water", "Places to get Coffee", "Feeling tired"],
     "responses": ["Check out the 7 11 to grab a cup of coffee", "Enjoy the view while having a coffee at the crown casino complex."],
     "context": ["search_pharmacy_by_name"]
    },
    {"tag": "Health",
     "patterns": ["I want to meet a doctor", "I am sick", "I feel dizzy", "Need to go to a hospital"],
     "responses": ["Call 000 and call an ambulance immediately!!"],
     "context": [""]
    },
    {"tag": "Animals",
     "patterns": ["I like animals", "Want to go to the zoo", "Melbourne zoo" ],
     "responses": ["Please provide hospital name or location"],
     "context": []
    },
    {"tag": "River_Cruise",
     "patterns": ["How much is the river cruise?", "Want to go in a boat", "Love the river"],
     "responses": ["Head over to the Yarra River and hop on a river cruise"],
     "context": []
    }
]
}